Final Project
…
#clean data

breast_cancer %>%
  select(-id) %>% 
  select(- ...33) %>%
  mutate(diagnosis  = if_else(diagnosis  == "M", 1, 0))  -> new_can
new_can

## # A tibble: 568 x 31
##    diagnosis radius_mean texture_mean perimeter_mean area_mean smoothness_mean
##        <dbl>       <dbl>        <dbl>          <dbl>     <dbl>           <dbl>
##  1         1        18.0         10.4          123.      1001           0.118 
##  2         1        20.6         17.8          133.      1326           0.0847
##  3         1        19.7         21.2          130       1203           0.110 
##  4         1        11.4         20.4           77.6      386.          0.142 
##  5         1        20.3         14.3          135.      1297           0.100 
##  6         1        12.4         15.7           82.6      477.          0.128 
##  7         1        18.2         20.0          120.      1040           0.0946
##  8         1        13.7         20.8           90.2      578.          0.119 
##  9         1        13           21.8           87.5      520.          0.127 
## 10         1        12.5         24.0           84.0      476.          0.119 
## # ... with 558 more rows, and 25 more variables: compactness_mean <dbl>,
## #   concavity_mean <dbl>, `concave points_mean` <dbl>, symmetry_mean <dbl>,
## #   fractal_dimension_mean <dbl>, radius_se <dbl>, texture_se <dbl>,
## #   perimeter_se <dbl>, area_se <dbl>, smoothness_se <dbl>,
## #   compactness_se <dbl>, concavity_se <dbl>, `concave points_se` <dbl>,
## #   symmetry_se <dbl>, fractal_dimension_se <dbl>, radius_worst <dbl>,
## #   texture_worst <dbl>, perimeter_worst <dbl>, area_worst <dbl>, ...

#data with full name of diagnosis

new_can %>% 
  
mutate(diagnosis  = if_else(diagnosis == 1, 
                            "Malignant", 
                            "Benign")) -> diagnosis_breast
diagnosis_breast

## # A tibble: 568 x 31
##    diagnosis radius_mean texture_mean perimeter_mean area_mean smoothness_mean
##    <chr>           <dbl>        <dbl>          <dbl>     <dbl>           <dbl>
##  1 Malignant        18.0         10.4          123.      1001           0.118 
##  2 Malignant        20.6         17.8          133.      1326           0.0847
##  3 Malignant        19.7         21.2          130       1203           0.110 
##  4 Malignant        11.4         20.4           77.6      386.          0.142 
##  5 Malignant        20.3         14.3          135.      1297           0.100 
##  6 Malignant        12.4         15.7           82.6      477.          0.128 
##  7 Malignant        18.2         20.0          120.      1040           0.0946
##  8 Malignant        13.7         20.8           90.2      578.          0.119 
##  9 Malignant        13           21.8           87.5      520.          0.127 
## 10 Malignant        12.5         24.0           84.0      476.          0.119 
## # ... with 558 more rows, and 25 more variables: compactness_mean <dbl>,
## #   concavity_mean <dbl>, `concave points_mean` <dbl>, symmetry_mean <dbl>,
## #   fractal_dimension_mean <dbl>, radius_se <dbl>, texture_se <dbl>,
## #   perimeter_se <dbl>, area_se <dbl>, smoothness_se <dbl>,
## #   compactness_se <dbl>, concavity_se <dbl>, `concave points_se` <dbl>,
## #   symmetry_se <dbl>, fractal_dimension_se <dbl>, radius_worst <dbl>,
## #   texture_worst <dbl>, perimeter_worst <dbl>, area_worst <dbl>, ...
…
